2.5      0.01057705      2.5      5.0
8.25      0.0113805     8.25      6.5
22.0     0.01191513     22.0     21.0
37.0     0.01133278     37.0      9.0
45.2     0.01061813     45.2      7.5
52.2     0.009886157     52.2      6.5
58.5     0.009162808     58.5      6.0
64.2     0.008456385     64.2      5.5
69.8     0.007756016     69.8      5.5
75.2     0.007042059     75.2      5.5
80.8     0.006323832     80.8      5.5
86.2     0.005610019     86.2      5.5
91.8     0.004908789     91.8      5.5
97.5     0.00419776     97.5      6.0
1.04e+02 0.003460039 1.04e+02      6.5
1.1e+02  0.002715984  1.1e+02      7.0
1.18e+02 0.001991555 1.18e+02      7.5
1.26e+02 0.001281062 1.26e+02      9.0
1.37e+02 0.0005485987 1.37e+02     13.5
1.5e+02  8.026126e-05  1.5e+02     12.0
1.56e+02 3.485648e-07 1.56e+02    0.001
